{ "frames": {
   "Idle-(Sean)-0": {
    "frame": { "x": 0, "y": 0, "w": 12, "h": 11 },
    "rotated": false,
    "trimmed": true,
    "spriteSourceSize": { "x": 0, "y": 1, "w": 12, "h": 11 },
    "sourceSize": { "w": 12, "h": 12 },
    "duration": 400
   },
   "Idle-(Sean)-1": {
    "frame": { "x": 12, "y": 0, "w": 12, "h": 11 },
    "rotated": false,
    "trimmed": true,
    "spriteSourceSize": { "x": 0, "y": 1, "w": 12, "h": 11 },
    "sourceSize": { "w": 12, "h": 12 },
    "duration": 200
   },
   "Walk-(Sean)-2": {
    "frame": { "x": 24, "y": 0, "w": 12, "h": 11 },
    "rotated": false,
    "trimmed": true,
    "spriteSourceSize": { "x": 0, "y": 1, "w": 12, "h": 11 },
    "sourceSize": { "w": 12, "h": 12 },
    "duration": 150
   },
   "Walk-(Sean)-3": {
    "frame": { "x": 36, "y": 0, "w": 12, "h": 11 },
    "rotated": false,
    "trimmed": true,
    "spriteSourceSize": { "x": 0, "y": 1, "w": 12, "h": 11 },
    "sourceSize": { "w": 12, "h": 12 },
    "duration": 150
   },
   "Walk-(Sean)-4": {
    "frame": { "x": 48, "y": 0, "w": 12, "h": 11 },
    "rotated": false,
    "trimmed": true,
    "spriteSourceSize": { "x": 0, "y": 1, "w": 12, "h": 11 },
    "sourceSize": { "w": 12, "h": 12 },
    "duration": 150
   },
   "Walk-(Sean)-5": {
    "frame": { "x": 60, "y": 0, "w": 12, "h": 11 },
    "rotated": false,
    "trimmed": true,
    "spriteSourceSize": { "x": 0, "y": 1, "w": 12, "h": 11 },
    "sourceSize": { "w": 12, "h": 12 },
    "duration": 150
   },
   "Falling-(Sean)-6": {
    "frame": { "x": 72, "y": 0, "w": 12, "h": 11 },
    "rotated": false,
    "trimmed": true,
    "spriteSourceSize": { "x": 0, "y": 1, "w": 12, "h": 11 },
    "sourceSize": { "w": 12, "h": 12 },
    "duration": 150
   },
   "Falling-(Sean)-7": {
    "frame": { "x": 84, "y": 0, "w": 12, "h": 11 },
    "rotated": false,
    "trimmed": true,
    "spriteSourceSize": { "x": 0, "y": 1, "w": 12, "h": 11 },
    "sourceSize": { "w": 12, "h": 12 },
    "duration": 150
   },
   "Squishing-(Sean)-8": {
    "frame": { "x": 96, "y": 0, "w": 12, "h": 11 },
    "rotated": false,
    "trimmed": true,
    "spriteSourceSize": { "x": 0, "y": 1, "w": 12, "h": 11 },
    "sourceSize": { "w": 12, "h": 12 },
    "duration": 100
   },
   "Squishing-(Sean)-9": {
    "frame": { "x": 108, "y": 0, "w": 12, "h": 11 },
    "rotated": false,
    "trimmed": true,
    "spriteSourceSize": { "x": 0, "y": 1, "w": 12, "h": 11 },
    "sourceSize": { "w": 12, "h": 12 },
    "duration": 100
   },
   "Squishing-(Sean)-10": {
    "frame": { "x": 120, "y": 0, "w": 12, "h": 11 },
    "rotated": false,
    "trimmed": true,
    "spriteSourceSize": { "x": 0, "y": 1, "w": 12, "h": 11 },
    "sourceSize": { "w": 12, "h": 12 },
    "duration": 100
   },
   "Squished-(Sean)-11": {
    "frame": { "x": 132, "y": 0, "w": 12, "h": 11 },
    "rotated": false,
    "trimmed": true,
    "spriteSourceSize": { "x": 0, "y": 1, "w": 12, "h": 11 },
    "sourceSize": { "w": 12, "h": 12 },
    "duration": 100
   },
   "Idle-(Hurtbox)-0": {
    "frame": { "x": 0, "y": 11, "w": 12, "h": 11 },
    "rotated": false,
    "trimmed": true,
    "spriteSourceSize": { "x": 0, "y": 1, "w": 12, "h": 11 },
    "sourceSize": { "w": 12, "h": 12 },
    "duration": 400
   },
   "Idle-(Hurtbox)-1": {
    "frame": { "x": 12, "y": 11, "w": 12, "h": 11 },
    "rotated": false,
    "trimmed": true,
    "spriteSourceSize": { "x": 0, "y": 1, "w": 12, "h": 11 },
    "sourceSize": { "w": 12, "h": 12 },
    "duration": 200
   },
   "Walk-(Hurtbox)-2": {
    "frame": { "x": 24, "y": 11, "w": 12, "h": 11 },
    "rotated": false,
    "trimmed": true,
    "spriteSourceSize": { "x": 0, "y": 1, "w": 12, "h": 11 },
    "sourceSize": { "w": 12, "h": 12 },
    "duration": 150
   },
   "Walk-(Hurtbox)-3": {
    "frame": { "x": 36, "y": 11, "w": 12, "h": 11 },
    "rotated": false,
    "trimmed": true,
    "spriteSourceSize": { "x": 0, "y": 1, "w": 12, "h": 11 },
    "sourceSize": { "w": 12, "h": 12 },
    "duration": 150
   },
   "Walk-(Hurtbox)-4": {
    "frame": { "x": 48, "y": 11, "w": 12, "h": 11 },
    "rotated": false,
    "trimmed": true,
    "spriteSourceSize": { "x": 0, "y": 1, "w": 12, "h": 11 },
    "sourceSize": { "w": 12, "h": 12 },
    "duration": 150
   },
   "Walk-(Hurtbox)-5": {
    "frame": { "x": 60, "y": 11, "w": 12, "h": 11 },
    "rotated": false,
    "trimmed": true,
    "spriteSourceSize": { "x": 0, "y": 1, "w": 12, "h": 11 },
    "sourceSize": { "w": 12, "h": 12 },
    "duration": 150
   },
   "Falling-(Hurtbox)-6": {
    "frame": { "x": 72, "y": 11, "w": 12, "h": 11 },
    "rotated": false,
    "trimmed": true,
    "spriteSourceSize": { "x": 0, "y": 1, "w": 12, "h": 11 },
    "sourceSize": { "w": 12, "h": 12 },
    "duration": 150
   },
   "Falling-(Hurtbox)-7": {
    "frame": { "x": 84, "y": 11, "w": 12, "h": 11 },
    "rotated": false,
    "trimmed": true,
    "spriteSourceSize": { "x": 0, "y": 1, "w": 12, "h": 11 },
    "sourceSize": { "w": 12, "h": 12 },
    "duration": 150
   },
   "Squishing-(Hurtbox)-8": {
    "frame": { "x": 96, "y": 11, "w": 12, "h": 11 },
    "rotated": false,
    "trimmed": true,
    "spriteSourceSize": { "x": 0, "y": 1, "w": 12, "h": 11 },
    "sourceSize": { "w": 12, "h": 12 },
    "duration": 100
   },
   "Squishing-(Hurtbox)-9": {
    "frame": { "x": 108, "y": 11, "w": 12, "h": 11 },
    "rotated": false,
    "trimmed": true,
    "spriteSourceSize": { "x": 0, "y": 1, "w": 12, "h": 11 },
    "sourceSize": { "w": 12, "h": 12 },
    "duration": 100
   },
   "Squishing-(Hurtbox)-10": {
    "frame": { "x": 120, "y": 11, "w": 12, "h": 11 },
    "rotated": false,
    "trimmed": true,
    "spriteSourceSize": { "x": 0, "y": 1, "w": 12, "h": 11 },
    "sourceSize": { "w": 12, "h": 12 },
    "duration": 100
   },
   "Squished-(Hurtbox)-11": {
    "frame": { "x": 132, "y": 11, "w": 12, "h": 11 },
    "rotated": false,
    "trimmed": true,
    "spriteSourceSize": { "x": 0, "y": 1, "w": 12, "h": 11 },
    "sourceSize": { "w": 12, "h": 12 },
    "duration": 100
   },
   "Idle-(Hitbox)-0": {
    "frame": { "x": 0, "y": 22, "w": 12, "h": 11 },
    "rotated": false,
    "trimmed": true,
    "spriteSourceSize": { "x": 0, "y": 1, "w": 12, "h": 11 },
    "sourceSize": { "w": 12, "h": 12 },
    "duration": 400
   },
   "Idle-(Hitbox)-1": {
    "frame": { "x": 12, "y": 22, "w": 12, "h": 11 },
    "rotated": false,
    "trimmed": true,
    "spriteSourceSize": { "x": 0, "y": 1, "w": 12, "h": 11 },
    "sourceSize": { "w": 12, "h": 12 },
    "duration": 200
   },
   "Walk-(Hitbox)-2": {
    "frame": { "x": 24, "y": 22, "w": 12, "h": 11 },
    "rotated": false,
    "trimmed": true,
    "spriteSourceSize": { "x": 0, "y": 1, "w": 12, "h": 11 },
    "sourceSize": { "w": 12, "h": 12 },
    "duration": 150
   },
   "Walk-(Hitbox)-3": {
    "frame": { "x": 36, "y": 22, "w": 12, "h": 11 },
    "rotated": false,
    "trimmed": true,
    "spriteSourceSize": { "x": 0, "y": 1, "w": 12, "h": 11 },
    "sourceSize": { "w": 12, "h": 12 },
    "duration": 150
   },
   "Walk-(Hitbox)-4": {
    "frame": { "x": 48, "y": 22, "w": 12, "h": 11 },
    "rotated": false,
    "trimmed": true,
    "spriteSourceSize": { "x": 0, "y": 1, "w": 12, "h": 11 },
    "sourceSize": { "w": 12, "h": 12 },
    "duration": 150
   },
   "Walk-(Hitbox)-5": {
    "frame": { "x": 60, "y": 22, "w": 12, "h": 11 },
    "rotated": false,
    "trimmed": true,
    "spriteSourceSize": { "x": 0, "y": 1, "w": 12, "h": 11 },
    "sourceSize": { "w": 12, "h": 12 },
    "duration": 150
   },
   "Falling-(Hitbox)-6": {
    "frame": { "x": 72, "y": 22, "w": 12, "h": 11 },
    "rotated": false,
    "trimmed": true,
    "spriteSourceSize": { "x": 0, "y": 1, "w": 12, "h": 11 },
    "sourceSize": { "w": 12, "h": 12 },
    "duration": 150
   },
   "Falling-(Hitbox)-7": {
    "frame": { "x": 84, "y": 22, "w": 12, "h": 11 },
    "rotated": false,
    "trimmed": true,
    "spriteSourceSize": { "x": 0, "y": 1, "w": 12, "h": 11 },
    "sourceSize": { "w": 12, "h": 12 },
    "duration": 150
   },
   "Squishing-(Hitbox)-8": {
    "frame": { "x": 96, "y": 22, "w": 12, "h": 11 },
    "rotated": false,
    "trimmed": true,
    "spriteSourceSize": { "x": 0, "y": 1, "w": 12, "h": 11 },
    "sourceSize": { "w": 12, "h": 12 },
    "duration": 100
   },
   "Squishing-(Hitbox)-9": {
    "frame": { "x": 108, "y": 22, "w": 12, "h": 11 },
    "rotated": false,
    "trimmed": true,
    "spriteSourceSize": { "x": 0, "y": 1, "w": 12, "h": 11 },
    "sourceSize": { "w": 12, "h": 12 },
    "duration": 100
   },
   "Squishing-(Hitbox)-10": {
    "frame": { "x": 120, "y": 22, "w": 12, "h": 11 },
    "rotated": false,
    "trimmed": true,
    "spriteSourceSize": { "x": 0, "y": 1, "w": 12, "h": 11 },
    "sourceSize": { "w": 12, "h": 12 },
    "duration": 100
   },
   "Squished-(Hitbox)-11": {
    "frame": { "x": 132, "y": 22, "w": 12, "h": 11 },
    "rotated": false,
    "trimmed": true,
    "spriteSourceSize": { "x": 0, "y": 1, "w": 12, "h": 11 },
    "sourceSize": { "w": 12, "h": 12 },
    "duration": 100
   },
   "Idle-(Registration)-0": {
    "frame": { "x": 0, "y": 33, "w": 12, "h": 11 },
    "rotated": false,
    "trimmed": true,
    "spriteSourceSize": { "x": 0, "y": 1, "w": 12, "h": 11 },
    "sourceSize": { "w": 12, "h": 12 },
    "duration": 400
   },
   "Idle-(Registration)-1": {
    "frame": { "x": 12, "y": 33, "w": 12, "h": 11 },
    "rotated": false,
    "trimmed": true,
    "spriteSourceSize": { "x": 0, "y": 1, "w": 12, "h": 11 },
    "sourceSize": { "w": 12, "h": 12 },
    "duration": 200
   },
   "Walk-(Registration)-2": {
    "frame": { "x": 24, "y": 33, "w": 12, "h": 11 },
    "rotated": false,
    "trimmed": true,
    "spriteSourceSize": { "x": 0, "y": 1, "w": 12, "h": 11 },
    "sourceSize": { "w": 12, "h": 12 },
    "duration": 150
   },
   "Walk-(Registration)-3": {
    "frame": { "x": 36, "y": 33, "w": 12, "h": 11 },
    "rotated": false,
    "trimmed": true,
    "spriteSourceSize": { "x": 0, "y": 1, "w": 12, "h": 11 },
    "sourceSize": { "w": 12, "h": 12 },
    "duration": 150
   },
   "Walk-(Registration)-4": {
    "frame": { "x": 48, "y": 33, "w": 12, "h": 11 },
    "rotated": false,
    "trimmed": true,
    "spriteSourceSize": { "x": 0, "y": 1, "w": 12, "h": 11 },
    "sourceSize": { "w": 12, "h": 12 },
    "duration": 150
   },
   "Walk-(Registration)-5": {
    "frame": { "x": 60, "y": 33, "w": 12, "h": 11 },
    "rotated": false,
    "trimmed": true,
    "spriteSourceSize": { "x": 0, "y": 1, "w": 12, "h": 11 },
    "sourceSize": { "w": 12, "h": 12 },
    "duration": 150
   },
   "Falling-(Registration)-6": {
    "frame": { "x": 72, "y": 33, "w": 12, "h": 11 },
    "rotated": false,
    "trimmed": true,
    "spriteSourceSize": { "x": 0, "y": 1, "w": 12, "h": 11 },
    "sourceSize": { "w": 12, "h": 12 },
    "duration": 150
   },
   "Falling-(Registration)-7": {
    "frame": { "x": 84, "y": 33, "w": 12, "h": 11 },
    "rotated": false,
    "trimmed": true,
    "spriteSourceSize": { "x": 0, "y": 1, "w": 12, "h": 11 },
    "sourceSize": { "w": 12, "h": 12 },
    "duration": 150
   },
   "Squishing-(Registration)-8": {
    "frame": { "x": 96, "y": 33, "w": 12, "h": 11 },
    "rotated": false,
    "trimmed": true,
    "spriteSourceSize": { "x": 0, "y": 1, "w": 12, "h": 11 },
    "sourceSize": { "w": 12, "h": 12 },
    "duration": 100
   },
   "Squishing-(Registration)-9": {
    "frame": { "x": 108, "y": 33, "w": 12, "h": 11 },
    "rotated": false,
    "trimmed": true,
    "spriteSourceSize": { "x": 0, "y": 1, "w": 12, "h": 11 },
    "sourceSize": { "w": 12, "h": 12 },
    "duration": 100
   },
   "Squishing-(Registration)-10": {
    "frame": { "x": 120, "y": 33, "w": 12, "h": 11 },
    "rotated": false,
    "trimmed": true,
    "spriteSourceSize": { "x": 0, "y": 1, "w": 12, "h": 11 },
    "sourceSize": { "w": 12, "h": 12 },
    "duration": 100
   },
   "Squished-(Registration)-11": {
    "frame": { "x": 132, "y": 33, "w": 12, "h": 11 },
    "rotated": false,
    "trimmed": true,
    "spriteSourceSize": { "x": 0, "y": 1, "w": 12, "h": 11 },
    "sourceSize": { "w": 12, "h": 12 },
    "duration": 100
   }
 },
 "meta": {
  "app": "https://www.aseprite.org/",
  "version": "1.2.39-x64",
  "image": "MicroSprites-Sean.png",
  "format": "RGBA8888",
  "size": { "w": 144, "h": 44 },
  "scale": "1",
  "frameTags": [
   { "name": "Idle", "from": 0, "to": 1, "direction": "forward" },
   { "name": "Walk", "from": 2, "to": 5, "direction": "forward" },
   { "name": "Falling", "from": 6, "to": 7, "direction": "forward" },
   { "name": "Squishing", "from": 8, "to": 10, "direction": "forward" },
   { "name": "Squished", "from": 11, "to": 11, "direction": "forward" }
  ],
  "layers": [
   { "name": "Sean", "opacity": 255, "blendMode": "normal" },
   { "name": "Data" },
   { "name": "Hurtbox", "group": "Data", "opacity": 255, "blendMode": "normal" },
   { "name": "Hitbox", "group": "Data", "opacity": 55, "blendMode": "normal" },
   { "name": "Registration", "group": "Data", "opacity": 255, "blendMode": "normal" }
  ],
  "slices": [
  ]
 }
}
